[
  { "_id": 0, "name": "architecture", "slug": "architecture", "value": "0"  },
  { "_id": 1, "name": "hacks", "slug": "hacks", "value": "1"  },
  { "_id": 2, "name": "database", "slug": "database", "value": "2"  },
  { "_id": 3, "name": "bleeding edge", "slug": "bleeding-edge", "value": "3"  },
  { "_id": 4, "name": "workplace", "slug": "workplace", "value": "4"  },
  { "_id": 5, "name": "programming", "slug": "programming", "value": "5"  }
]