[
  { "_id": 0, "userName": "tajin19", "local": { "email": "animal8us@yahoo.com", "password": "ace" } },
  { "_id": 1, "userName": "tim", "local": { "email": "tjmetcalf@gmail.com", "password": "ace" } }
]